[  
   {  
      "device":"Explore",
      "default":{  
         "lang":"en",
         "url":"https://docs.google.com/document/d/e/2PACX-1vSN_Rr5PEb8-MXgnoBYhIGfWpWz90xQYUxW1GxXPoG9edhvKEfkCuifYT_kCuCtZ7-v6ayvAth215E1/pub"
      },
      "manual":[  
         {  
            "lang":"fr",
            "url":"https://docs.google.com/document/d/e/2PACX-1vSN_Rr5PEb8-MXgnoBYhIGfWpWz90xQYUxW1GxXPoG9edhvKEfkCuifYT_kCuCtZ7-v6ayvAth215E1/pub"
         },
         {  
            "lang":"pl",
            "url":"https://docs.google.com/document/d/e/2PACX-1vSN_Rr5PEb8-MXgnoBYhIGfWpWz90xQYUxW1GxXPoG9edhvKEfkCuifYT_kCuCtZ7-v6ayvAth215E1/pub"
         }
      ]
   },
   {  
      "device":"evk_6sl_r6801",
      "default":{  
         "lang":"en",
         "url":"https://docs.google.com/document/d/e/2PACX-1vSN_Rr5PEb8-MXgnoBYhIGfWpWz90xQYUxW1GxXPoG9edhvKEfkCuifYT_kCuCtZ7-v6ayvAth215E1/pub"
      },
      "manual":[  
         {  
            "lang":"fr",
            "url":"https://docs.google.com/document/d/e/2PACX-1vSN_Rr5PEb8-MXgnoBYhIGfWpWz90xQYUxW1GxXPoG9edhvKEfkCuifYT_kCuCtZ7-v6ayvAth215E1/pub"
         },
         {  
            "lang":"pl",
            "url":"https://docs.google.com/document/d/e/2PACX-1vSN_Rr5PEb8-MXgnoBYhIGfWpWz90xQYUxW1GxXPoG9edhvKEfkCuifYT_kCuCtZ7-v6ayvAth215E1/pub"
         }
      ]
   }
]